<?xml version="1.0" encoding="UTF-8"?>
<svg width="196px" height="109px" viewBox="0 0 196 109" version="1.1" xmlns="http://www.w3.org/2000/svg" xmlns:xlink="http://www.w3.org/1999/xlink">
    <!-- Generator: Sketch 47.1 (45422) - http://www.bohemiancoding.com/sketch -->
    <title>02</title>
    <desc>Created with Sketch.</desc>
    <defs></defs>
    <g id="Page-1" stroke="none" stroke-width="1" fill="none" fill-rule="evenodd" opacity="0.154155344">
        <g id="Cosmo-Landing-Page" transform="translate(-574.000000, -1926.000000)" fill="#FFFFFF">
            <path d="M639.599005,1926.23828 C660.204474,1926.23828 671.044317,1939.42188 671.044317,1961.58984 C671.044317,1997.625 642.235724,2034.83203 607.372442,2034.83203 C587.255255,2034.83203 574.559942,2022.42969 574.559942,1999.1875 C574.559942,1963.15234 605.028692,1926.23828 639.599005,1926.23828 Z M635.790411,1929.75391 C613.817755,1929.75391 593.016974,1964.22656 593.016974,2001.04297 C593.016974,2023.60156 600.829474,2031.21875 611.181036,2031.21875 C634.423224,2031.21875 652.587286,1994.01172 652.587286,1958.5625 C652.587286,1936.98047 645.849005,1929.75391 635.790411,1929.75391 Z M742.235724,1926.43359 C717.235724,1926.43359 696.630255,1945.57422 696.630255,1963.15234 C696.630255,1974.38281 705.028692,1976.82422 711.571661,1976.82422 C718.212286,1976.82422 726.415411,1974.1875 733.837286,1967.15625 L731.39588,1964.42188 C725.243536,1969.79297 720.360724,1972.625 713.036505,1972.625 C704.638067,1972.625 701.415411,1969.40234 701.415411,1962.95703 C701.415411,1947.03906 721.044317,1930.82812 735.595099,1930.82812 C745.751349,1930.82812 751.024786,1937.76172 751.024786,1948.40625 C751.024786,1982 698.192755,2012.17578 678.173224,2027.80078 L677.196661,2032 C684.618536,2028.875 690.087286,2027.11719 698.58338,2027.11719 C714.306036,2027.11719 724.657599,2033.17188 738.036505,2033.17188 C755.809942,2033.17188 763.036505,2022.82031 763.036505,2012.37109 C763.036505,2004.55859 758.837286,1999.77344 752.001349,1996.64844 L749.36463,1999.1875 C755.028692,2001.82422 758.153692,2005.4375 758.153692,2010.61328 C758.153692,2016.96094 753.368536,2020.18359 744.384161,2020.18359 C732.567755,2020.18359 713.231817,2014.61719 702.001349,2014.61719 C718.407599,2001.04297 769.188849,1973.40625 769.188849,1946.16016 C769.188849,1933.36719 758.349005,1926.43359 742.235724,1926.43359 Z" id="02"></path>
        </g>
    </g>
</svg>