<svg xmlns="http://www.w3.org/2000/svg" xmlns:xlink="http://www.w3.org/1999/xlink" width="394" height="216">
  <defs>
    <path id="a" d="M1010.68 3358.95s134.51-137.48 266.56-132.54c47.47-.13 72.2 6.43 144.9 45"/>
    <path id="b" d="M1080.4 3300.59c17.32-3.46 33.64-1.48 45.02 6.93 7.42 3.95 18.79 3.95 18.79 3.95s-18.3 24.73-54.4-3.95c-4.95-3.96-8.13-3.4-16.92-1.45z"/>
    <path id="c" d="M1101.39 3286.22c4.3-4.67 1.15-23.77 8.75-35.45 7.6-11.69 16.32-17.43 28.56-19.66-3.52 13.17-3.7 18.17-5 30.04-1.3 11.87-7.98 25.29-29.68 25.07z"/>
    <path id="d" d="M1149.99 3258.3c-7.88 6 8.56-33.68 53.07-34.05 0 0-.56 18.36-15.2 24.48-14.66 6.12-29 2.84-37.87 9.58"/>
    <path id="e" d="M1235.5 3227.95c-1.85-11.87.75-40.61 40.25-42.28 1.86 12.61-2.6 20.21-10.57 26.15-7.97 5.93-23.7 10.45-26.87 17z"/>
    <path id="f" d="M1304.86 3227.46c1.49-6 14.66-26.76 27.64-26.58 12.98.19 17.62 4.64 27.26 1.67 9.64-2.97-17.62 13.35-26.33 14.47-8.72 1.1-21.72 5.32-24.86 10.82z"/>
    <path id="g" d="M1205.85 3236.14c-.94 8.5 2.03 26.12 15.57 31.87 13.54 5.75 30.04 2.96 35.98-4.82 0 0-4.83-.56-15.58-7.24-10.76-6.67-19.68-18.13-32.37-20.84z"/>
    <path id="h" d="M1263.68 3226.4c-.35 5.45 6.88 41.61 46.75 41.8 0 0-7.05-30.97-27.82-35.42a390.7 390.7 0 0 0-12.98-6.5z"/>
    <path id="i" d="M1320.46 3229.58c4.44 6.17 4.07 20.26 5 29.72.93 9.46 11.13 22.25 45.62 28 1.67 0 3.52-1.11 2.22-3.52-1.3-2.41-10.57-14.1-15.02-20.21-4.45-6.12-9.15-21.46-29.05-32.15z"/>
    <path id="j" d="M1365.16 3243.55c9.25-3.54 24.83-11.51 37.63-5.02 12.8 6.49 26.52 19.28 33.38 13.16 0 0-15.75 16.5-35.5 13.36-19.77-3.16-25.01-14.1-28.11-16.88a31.35 31.35 0 0 0-7.4-4.62"/>
    <path id="k" d="M1421.33 3272.28c15.95-.37 35.8-2.22 61.38 38.95 0 0-21.7 12.42-46.54-15.02-12.06-16.14-14.84-23.93-14.84-23.93"/>
  </defs>
  <use fill="#fff" fill-opacity="0" stroke="#00311a" stroke-linecap="round" stroke-miterlimit="50" xlink:href="#a" transform="translate(-1046 -3189)"/>
  <use fill="#949d7f" xlink:href="#b" transform="translate(-1046 -3189)"/>
  <use fill="#949d7f" xlink:href="#c" transform="translate(-1046 -3189)"/>
  <use fill="#949d7f" xlink:href="#d" transform="translate(-1046 -3189)"/>
  <use fill="#949d7f" xlink:href="#e" transform="translate(-1046 -3189)"/>
  <use fill="#949d7f" xlink:href="#f" transform="translate(-1046 -3189)"/>
  <use fill="#949d7f" xlink:href="#g" transform="translate(-1046 -3189)"/>
  <use fill="#949d7f" xlink:href="#h" transform="translate(-1046 -3189)"/>
  <use fill="#949d7f" xlink:href="#i" transform="translate(-1046 -3189)"/>
  <use fill="#949d7f" xlink:href="#j" transform="translate(-1046 -3189)"/>
  <use fill="#949d7f" xlink:href="#k" transform="translate(-1046 -3189)"/>
</svg>
