<?xml version="1.0" encoding="UTF-8"?>
<svg width="174px" height="147px" viewBox="0 0 174 147" version="1.1" xmlns="http://www.w3.org/2000/svg" xmlns:xlink="http://www.w3.org/1999/xlink">
    <!-- Generator: Sketch 47.1 (45422) - http://www.bohemiancoding.com/sketch -->
    <title>01</title>
    <desc>Created with Sketch.</desc>
    <defs></defs>
    <g id="Page-1" stroke="none" stroke-width="1" fill="none" fill-rule="evenodd" font-weight="normal" font-family="Avenir-Book, Avenir" line-spacing="220" font-size="200" opacity="0.154155344">
        <g id="Cosmo-Landing-Page" transform="translate(-134.000000, -1868.000000)" fill="#FFFFFF">
            <text id="01">
                <tspan x="99.6718534" y="2039">01</tspan>
            </text>
        </g>
    </g>
</svg>