<?xml version="1.0" encoding="UTF-8"?>
<svg width="198px" height="146px" viewBox="0 0 198 146" version="1.1" xmlns="http://www.w3.org/2000/svg" xmlns:xlink="http://www.w3.org/1999/xlink">
    <!-- Generator: Sketch 47.1 (45422) - http://www.bohemiancoding.com/sketch -->
    <title>Page 1 Copy 4</title>
    <desc>Created with Sketch.</desc>
    <defs></defs>
    <g id="Page-1" stroke="none" stroke-width="1" fill="none" fill-rule="evenodd">
        <g id="Cosmo-Landing-Page" transform="translate(-1242.000000, -107.000000)">
            <g id="Page-1-Copy-4" transform="translate(1417.494894, 190.165367) rotate(196.000000) translate(-1417.494894, -190.165367) translate(1225.994894, 119.665367)">
                <path d="M0.599999501,140.234784 C0.599999501,140.234784 109.465628,28.9677166 216.329658,32.9697144 C254.75268,32.8640511 274.765071,38.1736325 333.600323,69.3923377" id="Stroke-1" stroke="#00311A" stroke-linecap="round"></path>
                <path d="M182.559424,34.2208641 C181.058525,24.6151086 183.159784,1.35116958 215.128939,0.00036021583 C216.629838,10.2064754 213.02768,16.3601625 206.573813,21.1630402 C200.119946,25.965918 187.39352,29.6209079 184.826382,34.9232849 L182.559424,34.2208641 Z" id="Fill-9" fill="#949D7F"></path>
                <path d="M238.688375,33.8163417 C239.893897,28.9678366 250.550282,12.1577646 261.056577,12.3078545 C271.562872,12.4579444 275.31512,16.0601027 283.119797,13.6586638 C290.924473,11.257225 268.861253,24.4651387 261.807027,25.3656783 C254.7528,26.2662179 244.234498,29.6738597 241.688972,34.1237259 L238.688375,33.8163417 Z" id="Fill-11" fill="#949D7F"></path>
                <path d="M158.550919,40.8459536 C157.794466,47.7284774 160.195904,61.9870207 171.152469,66.6398085 C182.109034,71.2925963 195.467038,69.0412474 200.269915,62.7374703 C200.269915,62.7374703 196.367577,62.2872005 187.662361,56.8839631 C178.957146,51.4807256 171.736019,42.205168 161.463864,40.0150558 L158.550919,40.8459536 Z" id="Fill-13" fill="#949D7F"></path>
                <path d="M205.361326,32.955666 C205.073153,37.3731128 210.926661,66.640649 243.195995,66.7907389 C243.195995,66.7907389 237.492578,41.7257208 220.682506,38.1235625 C216.479988,35.8722135 210.176211,32.8644113 210.176211,32.8644113 L205.361326,32.955666 Z" id="Fill-15" fill="#949D7F"></path>
                <path d="M251.307576,35.5330103 C254.90253,40.524401 254.60235,51.9312356 255.352799,59.585822 C256.103249,67.2404084 264.358195,77.5966135 292.274922,82.2494013 C293.625731,82.2494013 295.126631,81.3488617 294.076001,79.3976926 C293.025372,77.4465235 285.520875,67.990858 281.918717,63.0378903 C278.316559,58.0849227 274.510278,45.6742866 258.402627,37.0207017 L251.307576,35.5330103 Z" id="Fill-17" fill="#949D7F"></path>
                <path d="M287.488614,46.844868 C294.976301,43.9763493 307.583855,37.5224823 317.94006,42.7756298 C328.296265,48.0287773 339.40292,58.3849825 344.956247,53.4320148 C344.956247,53.4320148 332.215413,66.7900185 316.223031,64.2384897 C300.229448,61.6869609 295.983704,52.8244508 293.475401,50.5803061 C290.967098,48.3361615 287.488614,46.844868 287.488614,46.844868" id="Fill-19" fill="#949D7F"></path>
                <path d="M332.949533,70.0923572 C345.857267,69.7921773 361.916889,68.291278 382.6293,101.611242 C382.6293,101.611242 365.068778,111.667268 344.956727,89.453958 C335.200882,76.3961342 332.949533,70.0923572 332.949533,70.0923572" id="Fill-21" fill="#949D7F"></path>
            </g>
        </g>
    </g>
</svg>